<?xml version="1.0" encoding="UTF-8" standalone="no"?>
<!-- Generator: Adobe Illustrator 16.0.4, SVG Export Plug-In . SVG Version: 6.00 Build 0)  -->

<svg
   xmlns:dc="http://purl.org/dc/elements/1.1/"
   xmlns:cc="http://creativecommons.org/ns#"
   xmlns:rdf="http://www.w3.org/1999/02/22-rdf-syntax-ns#"
   xmlns:svg="http://www.w3.org/2000/svg"
   xmlns="http://www.w3.org/2000/svg"
   xmlns:sodipodi="http://sodipodi.sourceforge.net/DTD/sodipodi-0.dtd"
   xmlns:inkscape="http://www.inkscape.org/namespaces/inkscape"
   version="1.1"
   id="Ebene_1"
   x="0px"
   y="0px"
   width="26"
   height="26"
   viewBox="0 0 26 26"
   enable-background="new 0 0 26 25"
   xml:space="preserve"
   inkscape:version="0.91 r13725"
   sodipodi:docname="cross.svg"><metadata
     id="metadata9"><rdf:RDF><cc:Work
         rdf:about=""><dc:format>image/svg+xml</dc:format><dc:type
           rdf:resource="http://purl.org/dc/dcmitype/StillImage" /><dc:title></dc:title></cc:Work></rdf:RDF></metadata><defs
     id="defs7" /><sodipodi:namedview
     pagecolor="#ffffff"
     bordercolor="#666666"
     borderopacity="1"
     objecttolerance="10"
     gridtolerance="10"
     guidetolerance="10"
     inkscape:pageopacity="0"
     inkscape:pageshadow="2"
     inkscape:window-width="2560"
     inkscape:window-height="1377"
     id="namedview5"
     showgrid="false"
     inkscape:zoom="9.44"
     inkscape:cx="13"
     inkscape:cy="12.5"
     inkscape:window-x="-8"
     inkscape:window-y="-8"
     inkscape:window-maximized="1"
     inkscape:current-layer="Ebene_1" /><path
     d="m 14.26,12.9995 8.47,-8.419 c 0.36,-0.36 0.36,-0.95 0,-1.31 -0.37,-0.36 -0.97,-0.36 -1.33,0 L 13,11.6145 4.6,3.2695 c -0.36,-0.36 -0.96,-0.36 -1.33,0 -0.36,0.36 -0.36,0.95 0,1.31 l 8.471,8.419 -8.471,8.421 c -0.36,0.36 -0.36,0.94 0,1.311 0.19,0.18 0.43,0.27 0.67,0.27 0.23,0 0.48,-0.09 0.66,-0.27 l 8.4,-8.345 8.399,8.345 c 0.181,0.18 0.431,0.27 0.66,0.27 0.239,0 0.479,-0.09 0.67,-0.27 0.36,-0.37 0.36,-0.95 0,-1.311 l -8.469,-8.42 z"
     id="path3"
     inkscape:connector-curvature="0"
     style="clip-rule:evenodd;fill:#000000;fill-rule:evenodd" /></svg>