<?xml version="1.0" encoding="UTF-8" standalone="no"?>
<svg
   xmlns:dc="http://purl.org/dc/elements/1.1/"
   xmlns:cc="http://creativecommons.org/ns#"
   xmlns:rdf="http://www.w3.org/1999/02/22-rdf-syntax-ns#"
   xmlns:svg="http://www.w3.org/2000/svg"
   xmlns="http://www.w3.org/2000/svg"
   xml:space="preserve"
   enable-background="new 0 0 19.001 19"
   viewBox="0 0 19.001 19"
   height="19px"
   width="19.001px"
   y="0px"
   x="0px"
   id="Ebene_1"
   version="1.1"><metadata
     id="metadata11"><rdf:RDF><cc:Work
         rdf:about=""><dc:format>image/svg+xml</dc:format><dc:type
           rdf:resource="http://purl.org/dc/dcmitype/StillImage" /><dc:title></dc:title></cc:Work></rdf:RDF></metadata><defs
     id="defs9" /><g
     style="fill:#000000"
     id="g3"><path
       style="fill:#000000"
       id="path5"
       d="M18.992,14.99c0.04,0.31-0.05,0.58-0.28,0.81l-2.68,2.66   c-0.12,0.13-0.27,0.24-0.47,0.34c-0.19,0.09-0.38,0.15-0.57,0.18l-0.12,0.01L14.612,19c-0.26,0-0.67-0.04-1.24-0.13   c-0.57-0.09-1.27-0.3-2.09-0.64c-0.83-0.35-1.76-0.86-2.81-1.54c-1.04-0.69-2.16-1.63-3.34-2.82c-0.94-0.93-1.71-1.81-2.33-2.66   c-0.62-0.84-1.11-1.63-1.49-2.34c-0.37-0.72-0.66-1.37-0.84-1.96c-0.19-0.58-0.32-1.08-0.39-1.51c-0.06-0.42-0.09-0.75-0.08-0.99   l0.02-0.4c0.03-0.19,0.09-0.38,0.18-0.58c0.1-0.19,0.21-0.35,0.35-0.47l2.67-2.68C3.412,0.09,3.622,0,3.872,0   c0.17,0,0.32,0.05,0.46,0.15c0.13,0.1,0.25,0.23,0.34,0.37l2.15,4.09c0.12,0.21,0.16,0.45,0.1,0.7c-0.05,0.26-0.16,0.47-0.34,0.65   l-0.98,0.98c-0.03,0.03-0.06,0.07-0.08,0.13c-0.02,0.07-0.03,0.12-0.03,0.16c0.06,0.28,0.18,0.6,0.37,0.96   c0.16,0.32,0.41,0.72,0.74,1.18c0.34,0.46,0.81,1,1.43,1.6c0.6,0.62,1.14,1.1,1.61,1.44c0.47,0.34,0.86,0.59,1.17,0.75   c0.32,0.16,0.56,0.26,0.73,0.29l0.25,0.06c0.03,0,0.07-0.01,0.13-0.04c0.06-0.02,0.1-0.04,0.13-0.07l1.15-1.16   c0.24-0.22,0.52-0.32,0.84-0.32c0.23,0,0.41,0.04,0.55,0.12h0.02l3.88,2.29C18.772,14.5,18.942,14.73,18.992,14.99z"
       fill="#FFFFFF"
       clip-rule="evenodd"
       fill-rule="evenodd" /></g></svg>